[
  {
    "types": [
      "Grass",
      "Poison"
    ],
    "evolution": {
      "branch": [
        {
          "id": 2,
          "candy_cost": 25,
          "item_requirement": null
        }
      ]
    }
  }
]
